producto|0|0|nombreTienda|telefonoComprador|fechaPedido|horaPedido|fechaEntrega|horaEntrega|repartidor|telefonoRepartidor|puntuado|estado
Pizza|3|36.4|Ate|945871542|20/6/2018|11:49:43|20/6/2018|11:51:35|Pedro Marroquin|912879588|sipuntuado|entregado
Aceite|1|10.5|Ate|945871542|20/6/2018|12:10:54|||||nopuntuado|cancelado
Aceite|1|10.5|Ate|945871542|20/6/2018|12:12:23|20/6/2018|12:13:13|Pedro Marroquin|912879588|sipuntuado|entregado
Aceite|1|10.5|Ate|945871542|20/6/2018|12:20:33|20/6/2018|12:22:21|Pedro Marroquin|912879588|sipuntuado|entregado
Aceite|5|24|Huaycan|945871542|20/6/2018|12:29:1|20/6/2018|12:31:33|Pedro Marroquin|912879588|sipuntuado|entregado
